mux_4to1/mux4to1_tb.vcd
$date
	Tue Mar 31 11:44:07 2026
$end
$version
	Icarus Verilog
$end
$timescale
	1s
$end
$scope module mux4to1_tb $end
$var wire 1 ! y $end
$var reg 1 " i0 $end
$var reg 1 # i1 $end
$var reg 1 $ i2 $end
$var reg 1 % i3 $end
$var reg 1 & s0 $end
$var reg 1 ' s1 $end
$var integer 32 ( j [31:0] $end
$scope module uut $end
$var wire 1 ) Y $end
$var wire 1 " i0 $end
$var wire 1 # i1 $end
$var wire 1 $ i2 $end
$var wire 1 % i3 $end
$var wire 1 & s0 $end
$var wire 1 ' s1 $end
$var wire 1 ! y $end
$upscope $end
$upscope $end
$enddefinitions $end
$comment Show the parameter values. $end
$dumpall
$end
#0
$dumpvars
0)
b0 (
0'
0&
0%
0$
0#
0"
z!
$end
#10
1%
b1 (
#20
1$
0%
b10 (
#30
1%
b11 (
#40
1#
0$
0%
b100 (
#50
1%
b101 (
#60
1$
0%
b110 (
#70
1%
b111 (
#80
1)
1"
0#
0$
0%
b1000 (
#90
1%
b1001 (
#100
1$
0%
b1010 (
#110
1%
b1011 (
#120
1#
0$
0%
b1100 (
#130
1%
b1101 (
#140
1$
0%
b1110 (
#150
1%
b1111 (
#160
b10000 (
